{
  "test_profiles": ["Debug"],
  "test_targets": ["test"],
  "lint_files": [
    "fiber.hpp", "fiber.cpp",
    "scheduler.hpp", "scheduler.cpp",
    "socket.hpp", "socket.cpp",
    "awaiter.hpp", "awaiter.cpp",
    "echo.hpp", "echo.cpp"
  ],
  "lint_includes": ["tiny-support-v1"],
  "submit_files": [
    "fiber.hpp", "fiber.cpp",
    "scheduler.hpp", "scheduler.cpp",
    "awaiter.hpp", "awaiter.cpp",
    "socket.hpp", "socket.cpp",
    "echo.hpp", "echo.cpp"
  ],
  "forbidden_patterns": [
    "Use asio::ip::tcp::socket",
    "Use asio::ip::tcp::acceptor"
  ]
}
